<svg xmlns="http://www.w3.org/2000/svg" fill="none" width="21.53" height="38.06" viewBox="0 0 21.53 38.06">
  <g id="Chevron_Left" data-name="Chevron Left" transform="translate(2.5 3.536)">
    <path id="Chevron_Left-2" data-name="Chevron Left" d="M854.033,46.955,838.539,31.46l15.494-15.494" transform="translate(-838.539 -15.966)" fill="none" stroke="#000" stroke-linecap="round" stroke-linejoin="round" stroke-width="5"/>
  </g>
</svg>
